Predict spawning of fish — predict_spawn • hatchR
…
predict_spawn(data = crooked_river,
              dates = date,
              temperature = temp_c,
              develop.date = "2015-03-21",
              model = bull_trout_emerge_mod
)
#> $days_to_develop
#> [1] 188
#> 
#> $dev_period
#>        start       stop
#> 1 2014-09-15 2015-03-21
#> 
#> $ef_table
#> # A tibble: 188 × 5
#>    index dates               temperature ef_vals ef_cumsum
#>    <dbl> <dttm>                    <dbl>   <dbl>     <dbl>
#>  1  1572 2015-03-21 00:00:00        2.25 0.00496     0.995
#>  2  1571 2015-03-20 00:00:00        1.97 0.00479     0.990
#>  3  1570 2015-03-19 00:00:00        1.78 0.00467     0.986
#>  4  1569 2015-03-18 00:00:00        2    0.00481     0.981
#>  5  1568 2015-03-17 00:00:00        2.02 0.00482     0.976
#>  6  1567 2015-03-16 00:00:00        2.06 0.00484     0.971
#>  7  1566 2015-03-15 00:00:00        1.97 0.00479     0.966
#>  8  1565 2015-03-14 00:00:00        1.93 0.00476     0.962
#>  9  1564 2015-03-13 00:00:00        1.64 0.00459     0.957
#> 10  1563 2015-03-12 00:00:00        1.79 0.00468     0.952
#> # ℹ 178 more rows
…
