Advanced plotting • hatchR
…
# make a similar object with spawning data (notice we name the columns the exact same)
bull_trout_spawn_phenology <- tibble(Date = fish_dates_all) |>
  mutate(Phenology = "Spawn")

# combine spawn and hatch/emerge objects for a final plotting object
bull_trout_all_phenology <- bind_rows(
  bull_trout_spawn_phenology,
  bull_trout_dist_phenology
) |>
  mutate(y = year(Date)) |>
  na.omit()

head(bull_trout_all_phenology)
#> # A tibble: 6 × 3
#>   Date                Phenology     y
#>   <dttm>              <chr>     <dbl>
#> 1 2013-09-01 00:00:00 Spawn      2013
#> 2 2013-09-02 00:00:00 Spawn      2013
#> 3 2013-09-03 00:00:00 Spawn      2013
#> 4 2013-09-03 00:00:00 Spawn      2013
#> 5 2013-09-03 00:00:00 Spawn      2013
#> # ℹ 1 more row
tail(bull_trout_all_phenology)
#> # A tibble: 6 × 3
#>   Date                Phenology     y
#>   <dttm>              <chr>     <dbl>
#> 1 2015-04-11 00:00:00 Emerge     2015
#> 2 2015-04-13 00:00:00 Emerge     2015
#> 3 2015-04-13 00:00:00 Emerge     2015
#> 4 2015-04-13 00:00:00 Emerge     2015
#> 5 2015-04-17 00:00:00 Emerge     2015
#> # ℹ 1 more row
…
