Parameterize hatchR Models • hatchR
…
These models are parameterized to 50% hatch or emergence (see Velsen (1987) for details). It is important to
remember that while these models predict a point estimate, hatch and
emergence, even within a single spawning family would occur as a
distribution of the phenological event.

model_table

model_table is loaded with hatchR, and
is a tibble with 51 rows and 5 columns:

model_table
#> # A tibble: 51 × 5
#>   author                  species model_id development_type expression          
#>   <chr>                   <chr>   <chr>    <chr>            <chr>               
#> 1 Beacham and Murray 1990 sockeye 2        hatch            1 /exp(6.727 - log(…
#> 2 Beacham and Murray 1990 sockeye 4        hatch            1/exp(8.734 + (-1.5…
#> 3 Beacham and Murray 1990 sockeye 5        hatch            1/exp(9.848 + (-1.5…
#> 4 Beacham and Murray 1990 sockeye 7        hatch            1/exp(5.379 + (-0.0…
#> 5 Beacham and Murray 1990 sockeye 2        emerge           1 / exp(7.227 - log…
#> # ℹ 46 more rows
…
