Predict fish phenology: basic • hatchR
…
# bring together as a tibble
demo <- tibble(x, demo_ef_vals)
demo
#> # A tibble: 41 × 2
#>        x demo_ef_vals
#>    <dbl>        <dbl>
#>  1  -5     NaN       
#>  2  -4.5   NaN       
#>  3  -4     NaN       
#>  4  -3.5   NaN       
#>  5  -3     NaN       
#>  6  -2.5   NaN       
#>  7  -2       0.000472
#>  8  -1.5     0.00107 
#>  9  -1       0.00167 
#> 10  -0.5     0.00227 
#> # ℹ 31 more rows
…
