Predict fish phenology: nested • hatchR
…
To get started lets take a quick look at the data.

# look at the first few rows
idaho
#> # A tibble: 773,681 × 3
#>   date                site      temp_c
#>   <dttm>              <chr>      <dbl>
#> 1 2010-12-01 00:00:00 PIBO_1345   0.07
#> 2 2010-12-01 00:00:00 PIBO_1346   0.53
#> 3 2010-12-01 00:00:00 PIBO_1350   0.47
#> 4 2010-12-01 00:00:00 PIBO_1368   0.1 
#> 5 2010-12-01 00:00:00 PIBO_1375   0.33
#> # ℹ 773,676 more rows
…
# we now have a list of 139 sites
length(bull_trout_sites)
#> [1] 139

# only keep sites in our vector of bull trout sites
idaho_bt <- idaho |> 
  filter(site %in% bull_trout_sites) 

# still lots of data!
idaho_bt
#> # A tibble: 473,595 × 3
#>   date                site      temp_c
#>   <dttm>              <chr>      <dbl>
#> 1 2010-12-01 00:00:00 PIBO_1345   0.07
#> 2 2010-12-01 00:00:00 PIBO_1346   0.53
#> 3 2010-12-01 00:00:00 PIBO_1350   0.47
#> 4 2010-12-01 00:00:00 PIBO_1368   0.1 
#> 5 2010-12-01 00:00:00 PIBO_1375   0.33
#> # ℹ 473,590 more rows
…
# order by sample date
PIBO_1345 |> arrange(date)
#> # A tibble: 3,601 × 3
#>   date                site      temp_c
#>   <dttm>              <chr>      <dbl>
#> 1 2010-12-01 00:00:00 PIBO_1345   0.07
#> 2 2010-12-01 00:00:00 PIBO_1345   0.07
#> 3 2010-12-02 00:00:00 PIBO_1345   0.07
#> 4 2010-12-02 00:00:00 PIBO_1345   0.07
#> 5 2010-12-03 00:00:00 PIBO_1345   0.06
#> # ℹ 3,596 more rows
…
In this first example we want to summarize our data by day, which we
can do using the following code.

First let’s just look at what nesting does before we actually make an
object.

idaho_bt |> 
  group_by(site) |>  # we group by site
  nest() |> # nest our grouped data
  head()
#> # A tibble: 6 × 2
#> # Groups:   site [6]
#>   site      data                
#>   <chr>     <list>              
#> 1 PIBO_1345 <tibble [3,601 × 2]>
#> 2 PIBO_1346 <tibble [3,570 × 2]>
#> 3 PIBO_1350 <tibble [3,571 × 2]>
#> 4 PIBO_1368 <tibble [3,581 × 2]>
#> 5 PIBO_1375 <tibble [3,582 × 2]>
#> # ℹ 1 more row
…
# look at first rows of full object
isaak_summ_bt
#> # A tibble: 139 × 2
#> # Groups:   site [139]
#>   site      summ_obj            
#>   <chr>     <list>              
#> 1 PIBO_1345 <tibble [1,826 × 2]>
#> 2 PIBO_1346 <tibble [1,826 × 2]>
#> 3 PIBO_1350 <tibble [1,826 × 2]>
#> 4 PIBO_1368 <tibble [1,826 × 2]>
#> 5 PIBO_1375 <tibble [1,826 × 2]>
#> # ℹ 134 more rows

# use purrr::pluck() the first site to see its structure
isaak_summ_bt |> pluck("summ_obj", 1)
#> # A tibble: 1,826 × 2
#>   date       daily_temp
#>   <date>          <dbl>
#> 1 2010-12-01       0.07
#> 2 2010-12-02       0.07
#> 3 2010-12-03       0.06
#> 4 2010-12-04       0.06
#> 5 2010-12-05       0.07
#> # ℹ 1,821 more rows

Since we’ll be operating on these as nests we will keep them as a
nest, however if you wanted to change back to the original dataframe
format it’s easy with tidyr::unnest().

isaak_summ_bt |> unnest(cols = summ_obj)
#> # A tibble: 253,814 × 3
#> # Groups:   site [139]
#>   site      date       daily_temp
#>   <chr>     <date>          <dbl>
#> 1 PIBO_1345 2010-12-01       0.07
#> 2 PIBO_1345 2010-12-02       0.07
#> 3 PIBO_1345 2010-12-03       0.06
#> 4 PIBO_1345 2010-12-04       0.06
#> 5 PIBO_1345 2010-12-05       0.07
#> # ℹ 253,809 more rows
…
hatch_res
#> # A tibble: 1,668 × 4
#> # Groups:   site [139]
#>   site      start      stop       days_to_hatch
#>   <chr>     <date>     <date>     <drtn>       
#> 1 PIBO_1345 2011-09-01 2011-11-11  71 days     
#> 2 PIBO_1345 2011-09-15 2011-12-27 103 days     
#> 3 PIBO_1345 2011-09-30 2012-02-07 130 days     
#> 4 PIBO_1345 2012-09-01 2012-11-26  86 days     
#> 5 PIBO_1345 2012-09-15 2013-01-04 111 days     
#> # ℹ 1,663 more rows
…
